{
  "symbol": {
    "id": 12110,
    "symbol": "CYBR",
    "symbol_mic": "CYBR.XNAS",
    "title": "CyberArk Software Ltd",
    "aliases": [],
    "is_following": false,
    "watchlist_count": 9375,
    "has_pricing": true
  },
  "cursor": {
    "more": true,
    "since": 557848577,
    "max": 554996940
  },
  "regions": [],
  "filters": [],
  "messages": [
    {
      "id": 557848577,
      "body": "$CYBR Weekly Chart \nAfter Hours: 224.55 \nBuy Point: 222.51",
      "created_at": "2024-01-14T12:35:23Z",
      "user": {
        "id": 8530584,
        "username": "JustStockCharts",
        "name": "Just Stock Charts",
        "avatar_url": "https://avatars.stocktwits.com/production/8530584/thumb-1698946362.png",
        "avatar_url_ssl": "https://avatars.stocktwits.com/production/8530584/thumb-1698946362.png",
        "join_date": "2023-11-02",
        "official": false,
        "identity": "User",
        "classification": [],
        "home_country": "US",
        "search_regions": [],
        "followers": 77,
        "following": 0,
        "ideas": 774,
        "watchlist_stocks_count": 0,
        "like_count": 56,
        "plus_tier": "",
        "premium_room": "",
        "trade_app": false,
        "trade_status": "PENDING_MFA"
      },
      "source": {
        "id": 2269,
        "title": "StockTwits Web",
        "url": "https://stocktwits.com"
      },
      "symbols": [
        {
          "id": 12110,
          "symbol": "CYBR",
          "symbol_mic": "CYBR.XNAS",
          "title": "CyberArk Software Ltd",
          "aliases": [],
          "is_following": false,
          "watchlist_count": 9373,
          "has_pricing": true
        }
      ],
      "mentioned_users": [],
      "entities": {
        "chart": {
          "thumb": "https://charts.stocktwits-cdn.com/cdn-cgi/image/fit=contain,width=175,height=98/production/original_557848577.jpg",
          "large": "https://charts.stocktwits-cdn.com/cdn-cgi/image/fit=scale-down,width=575/production/original_557848577.jpg",
          "original": "https://charts.stocktwits-cdn.com/production/original_557848577.jpg",
          "url": "https://charts.stocktwits-cdn.com/production/original_557848577.jpg",
          "height": 1130,
          "width": 1388,
          "ratio": 0.81412104
        },
        "sentiment": null
      }
    },
    {
      "id": 557820390,
      "body": "$CYBR tons of accumulation volume",
      "created_at": "2024-01-13T17:14:14Z",
      "user": {
        "id": 2243776,
        "username": "AnchorsAweigh",
        "name": "AnchorsAweigh",
        "avatar_url": "https://avatars.stocktwits.com/production/2243776/thumb-1704152166.png",
        "avatar_url_ssl": "https://avatars.stocktwits.com/production/2243776/thumb-1704152166.png",
        "join_date": "2019-08-06",
        "official": false,
        "identity": "User",
        "classification": [
          "suggested"
        ],
        "home_country": "US",
        "search_regions": [],
        "followers": 1482,
        "following": 112,
        "ideas": 43974,
        "watchlist_stocks_count": 294,
        "like_count": 23736,
        "plus_tier": "",
        "premium_room": "",
        "trade_app": false,
        "trade_status": "PENDING_MFA"
      },
      "source": {
        "id": 1149,
        "title": "StockTwits for iOS",
        "url": "http://www.stocktwits.com/mobile"
      },
      "symbols": [
        {
          "id": 12110,
          "symbol": "CYBR",
          "symbol_mic": "CYBR.XNAS",
          "title": "CyberArk Software Ltd",
          "aliases": [],
          "is_following": false,
          "watchlist_count": 9373,
          "has_pricing": true
        }
      ],
      "mentioned_users": [],
      "entities": {
        "sentiment": {
          "basic": "Bullish"
        }
      }
    },
    {
      "id": 557804251,
      "body": "StockTwits Trending Alert: Trading recent interest in CYBERARK SOFTWARE LTD. ORDINAR $CYBR https://ideas.quantcha.com/?p=77890",
      "created_at": "2024-01-13T06:03:38Z",
      "user": {
        "id": 403382,
        "username": "quantcha",
        "name": "Quantcha",
        "avatar_url": "https://avatars.stocktwits.com/production/403382/thumb-1411503795.png",
        "avatar_url_ssl": "https://avatars.stocktwits.com/production/403382/thumb-1411503795.png",
        "join_date": "2014-09-23",
        "official": true,
        "identity": "Official",
        "classification": [
          "official"
        ],
        "home_country": "US",
        "search_regions": [],
        "followers": 43732,
        "following": 33,
        "ideas": 139196,
        "watchlist_stocks_count": 0,
        "like_count": 13,
        "plus_tier": "",
        "premium_room": "",
        "trade_app": false,
        "trade_status": "PENDING_MFA"
      },
      "source": {
        "id": 1788,
        "title": "Quantcha Ideas",
        "url": "http://ideas.quantcha.com"
      },
      "symbols": [
        {
          "id": 12110,
          "symbol": "CYBR",
          "symbol_mic": "CYBR.XNAS",
          "title": "CyberArk Software Ltd",
          "aliases": [],
          "is_following": false,
          "watchlist_count": 9375,
          "has_pricing": true
        }
      ],
      "links": [
        {
          "title": "StockTwits Trending Alert: Trading recent interest in CYBERARK SOFTWARE LTD. ORDINAR $CYBR",
          "url": "https://ideas.quantcha.com/?p=77890",
          "shortened_url": "https://stkt.co/ft2dUiV8",
          "shortened_expanded_url": "ideas.quantcha.com/2024/01/...",
          "description": "Quantchabot has detected a new Short Risk Reversal trade opportunity for CYBERARK SOFTWARE LTD. ORDINAR ( CYBR) for the 20-Dec-2024 expiration period. You can analyze the opportunity in depth over at the Quantcha Options Search Engine. CYBR was recently trading at $224.09 and has an implied volatility of 40.45% for this period.",
          "image": null,
          "created_at": "2024-01-13T06:03:41Z",
          "video_url": null,
          "source": {
            "name": "Quantcha",
            "website": "https://ideas.quantcha.com"
          }
        }
      ],
      "mentioned_users": [],
      "entities": {
        "chart": {
          "thumb": "https://charts.stocktwits-cdn.com/cdn-cgi/image/fit=contain,width=175,height=98/production/original_557804251.",
          "large": "https://charts.stocktwits-cdn.com/cdn-cgi/image/fit=scale-down,width=575/production/original_557804251.",
          "original": "https://charts.stocktwits-cdn.com/production/original_557804251.",
          "url": "https://charts.stocktwits-cdn.com/production/original_557804251.",
          "height": 630,
          "width": 1200,
          "ratio": 0.525
        },
        "sentiment": null
      }
    },
    {
      "id": 557797488,
      "body": "$CYBR    Cyberark",
      "created_at": "2024-01-13T02:37:01Z",
      "user": {
        "id": 4396987,
        "username": "Wigglyick",
        "name": "Randy",
        "avatar_url": "https://avatars.stocktwits.com/production/4396987/thumb-1705256514.png",
        "avatar_url_ssl": "https://avatars.stocktwits.com/production/4396987/thumb-1705256514.png",
        "join_date": "2020-12-07",
        "official": false,
        "identity": "User",
        "classification": [],
        "search_regions": [],
        "followers": 233,
        "following": 112,
        "ideas": 7720,
        "watchlist_stocks_count": 300,
        "like_count": 6851,
        "plus_tier": "",
        "premium_room": "",
        "trade_app": false,
        "trade_status": "PENDING_MFA"
      },
      "source": {
        "id": 1149,
        "title": "StockTwits for iOS",
        "url": "http://www.stocktwits.com/mobile"
      },
      "symbols": [
        {
          "id": 12110,
          "symbol": "CYBR",
          "symbol_mic": "CYBR.XNAS",
          "title": "CyberArk Software Ltd",
          "aliases": [],
          "is_following": false,
          "watchlist_count": 9375,
          "has_pricing": true
        }
      ],
      "conversation": {
        "parent_message_id": 557789512,
        "in_reply_to_message_id": 557789512,
        "parent": false,
        "replies": 4
      },
      "mentioned_users": [],
      "entities": {
        "chart": {
          "thumb": "https://charts.stocktwits-cdn.com/cdn-cgi/image/fit=contain,width=175,height=98/production/original_557797488.png",
          "large": "https://charts.stocktwits-cdn.com/cdn-cgi/image/fit=scale-down,width=575/production/original_557797488.png",
          "original": "https://charts.stocktwits-cdn.com/production/original_557797488.png",
          "url": "https://charts.stocktwits-cdn.com/production/original_557797488.png",
          "height": 1203,
          "width": 1604,
          "ratio": 0.75
        },
        "sentiment": null
      }
    },
    {
      "id": 557797358,
      "body": "$CYBR     Cyber Security",
      "created_at": "2024-01-13T02:34:20Z",
      "user": {
        "id": 4396987,
        "username": "Wigglyick",
        "name": "Randy",
        "avatar_url": "https://avatars.stocktwits.com/production/4396987/thumb-1705256514.png",
        "avatar_url_ssl": "https://avatars.stocktwits.com/production/4396987/thumb-1705256514.png",
        "join_date": "2020-12-07",
        "official": false,
        "identity": "User",
        "classification": [],
        "search_regions": [],
        "followers": 233,
        "following": 112,
        "ideas": 7720,
        "watchlist_stocks_count": 300,
        "like_count": 6851,
        "plus_tier": "",
        "premium_room": "",
        "trade_app": false,
        "trade_status": "PENDING_MFA"
      },
      "source": {
        "id": 1149,
        "title": "StockTwits for iOS",
        "url": "http://www.stocktwits.com/mobile"
      },
      "symbols": [
        {
          "id": 12110,
          "symbol": "CYBR",
          "symbol_mic": "CYBR.XNAS",
          "title": "CyberArk Software Ltd",
          "aliases": [],
          "is_following": false,
          "watchlist_count": 9375,
          "has_pricing": true
        }
      ],
      "conversation": {
        "parent_message_id": 557761922,
        "in_reply_to_message_id": 557761922,
        "parent": false,
        "replies": 1
      },
      "mentioned_users": [],
      "entities": {
        "chart": {
          "thumb": "https://charts.stocktwits-cdn.com/cdn-cgi/image/fit=contain,width=175,height=98/production/original_557797358.png",
          "large": "https://charts.stocktwits-cdn.com/cdn-cgi/image/fit=scale-down,width=575/production/original_557797358.png",
          "original": "https://charts.stocktwits-cdn.com/production/original_557797358.png",
          "url": "https://charts.stocktwits-cdn.com/production/original_557797358.png",
          "height": 1203,
          "width": 1604,
          "ratio": 0.75
        },
        "sentiment": null
      }
    },
    {
      "id": 557702169,
      "body": "Do you agree with the A.I. prediction? $CYBR RSI Indicator left the overbought zone. View odds of downtrend. https://srnk.us/go/4967099",
      "created_at": "2024-01-12T15:28:29Z",
      "user": {
        "id": 967528,
        "username": "tickeron",
        "name": "Tickeron",
        "avatar_url": "https://avatars.stocktwits.com/production/967528/thumb-1492026736.png",
        "avatar_url_ssl": "https://avatars.stocktwits.com/production/967528/thumb-1492026736.png",
        "join_date": "2017-02-23",
        "official": true,
        "identity": "Official",
        "classification": [
          "official"
        ],
        "home_country": "US",
        "search_regions": [],
        "followers": 14078,
        "following": 108,
        "ideas": 1410428,
        "watchlist_stocks_count": 0,
        "like_count": 0,
        "plus_tier": "",
        "premium_room": "",
        "trade_app": false,
        "trade_status": "PENDING_MFA"
      },
      "source": {
        "id": 5810,
        "title": "Tickeron",
        "url": "https://tickeron.com"
      },
      "symbols": [
        {
          "id": 12110,
          "symbol": "CYBR",
          "symbol_mic": "CYBR.XNAS",
          "title": "CyberArk Software Ltd",
          "aliases": [],
          "is_following": false,
          "watchlist_count": 9373,
          "has_pricing": true
        }
      ],
      "links": [
        {
          "title": "CYBRCyberArk Software (CYBR, $221.72) RSI Indicator left the overbought zone on January 11, 2024",
          "url": "https://srnk.us/go/4967099",
          "shortened_url": "https://stkt.co/npmsohd3",
          "shortened_expanded_url": "tickeron.com/news/CYBR-RSI-...",
          "description": "This is a signal that CYBR's price could be shifting from an uptrend to a downtrend. Traders may consider selling the stock or exploring put options. A.I.dvisor looked back and found 36 similar cases where CYBR's RSI Indicator left the overbought zone, and in [[lock_reg:27]] of them led to a successful outcome.",
          "image": null,
          "created_at": "2024-01-12T15:28:31Z",
          "video_url": null,
          "source": {
            "name": "Tickeron",
            "website": "https://tickeron.com"
          }
        }
      ],
      "mentioned_users": [],
      "entities": {
        "chart": {
          "thumb": "https://charts.stocktwits-cdn.com/cdn-cgi/image/fit=contain,width=175,height=98/production/original_557702169.",
          "large": "https://charts.stocktwits-cdn.com/cdn-cgi/image/fit=scale-down,width=575/production/original_557702169.",
          "original": "https://charts.stocktwits-cdn.com/production/original_557702169.",
          "url": "https://charts.stocktwits-cdn.com/production/original_557702169.",
          "height": 486,
          "width": 875,
          "ratio": 0.55542857
        },
        "sentiment": {
          "basic": "Bearish"
        }
      }
    },
    {
      "id": 557675302,
      "body": "Signal alert: $CYBR - PivotPoint bottom https://stockinvest.us/l/jrLkjgmibK",
      "created_at": "2024-01-12T10:41:15Z",
      "user": {
        "id": 700679,
        "username": "StockInvest_us",
        "name": "StockInvest.us",
        "avatar_url": "https://avatars.stocktwits.com/production/700679/thumb-1457714493.png",
        "avatar_url_ssl": "https://avatars.stocktwits.com/production/700679/thumb-1457714493.png",
        "join_date": "2016-03-05",
        "official": true,
        "identity": "Official",
        "classification": [
          "official"
        ],
        "home_country": "NO",
        "search_regions": [],
        "followers": 10871,
        "following": 60,
        "ideas": 136651,
        "watchlist_stocks_count": 0,
        "like_count": 28,
        "plus_tier": "",
        "premium_room": "",
        "trade_app": false,
        "trade_status": "PENDING_MFA"
      },
      "source": {
        "id": 3092,
        "title": "StockInvest.us",
        "url": "http://stockinvest.us"
      },
      "symbols": [
        {
          "id": 12110,
          "symbol": "CYBR",
          "symbol_mic": "CYBR.XNAS",
          "title": "CyberArk Software Ltd",
          "aliases": [],
          "is_following": false,
          "watchlist_count": 9373,
          "has_pricing": true
        }
      ],
      "links": [
        {
          "title": null,
          "url": "https://stockinvest.us/l/jrLkjgmibK",
          "shortened_url": "https://stkt.co/tSX0sn8S",
          "shortened_expanded_url": "stockinvest.us/l/jrLkjgmibK",
          "description": null,
          "image": null,
          "created_at": "2024-01-12T10:41:16Z",
          "video_url": null,
          "source": {
            "name": "Stockinvest",
            "website": "https://stockinvest.us"
          }
        }
      ],
      "mentioned_users": [],
      "entities": {
        "chart": {
          "thumb": "https://charts.stocktwits-cdn.com/cdn-cgi/image/fit=contain,width=175,height=98/production/original_557675302.",
          "large": "https://charts.stocktwits-cdn.com/cdn-cgi/image/fit=scale-down,width=575/production/original_557675302.",
          "original": "https://charts.stocktwits-cdn.com/production/original_557675302.",
          "url": "https://charts.stocktwits-cdn.com/production/original_557675302.",
          "height": 400,
          "width": 600,
          "ratio": 0.66666667
        },
        "sentiment": {
          "basic": "Bullish"
        }
      }
    },
    {
      "id": 557507682,
      "body": "WATCHLIST JAN 11 2024.\n\n$ALTM BMO Capital Initiates Coverage On Arcadium Lithium with Market Perform Rating, Announces Price Target of $7\n\n$META Mizuho Maintains Buy on Meta Platforms, Raises Price Target to $470\n\n$UDR Mizuho Maintains Neutral on UDR, Raises Price Target to $38\n\n$CYBR Citigroup Maintains Buy on CyberArk Software, Raises Price Target to $265\n\n$ITW B of A Securities Downgrades Illinois Tool Works to Underperform, Lowers Price Target to $235",
      "created_at": "2024-01-11T10:15:28Z",
      "user": {
        "id": 3993960,
        "username": "Thestocktraderhubzee",
        "name": "The Stock trader Hub Zee",
        "avatar_url": "https://avatars.stocktwits.com/production/3993960/thumb-1697571464.png",
        "avatar_url_ssl": "https://avatars.stocktwits.com/production/3993960/thumb-1697571464.png",
        "join_date": "2020-08-23",
        "official": false,
        "identity": "User",
        "classification": [
          "plus"
        ],
        "home_country": "IN",
        "search_regions": [],
        "followers": 17692,
        "following": 96,
        "ideas": 13461,
        "watchlist_stocks_count": 5,
        "like_count": 83,
        "plus_tier": "month",
        "premium_room": "",
        "trade_app": false,
        "trade_status": "UNAVAILABLE"
      },
      "source": {
        "id": 1149,
        "title": "StockTwits for iOS",
        "url": "http://www.stocktwits.com/mobile"
      },
      "symbols": [
        {
          "id": 5917,
          "symbol": "ITW",
          "symbol_mic": "ITW.XNYS",
          "title": "Illinois Tool Works, Inc.",
          "aliases": [],
          "is_following": false,
          "watchlist_count": 1447,
          "has_pricing": true
        },
        {
          "id": 7545,
          "symbol": "UDR",
          "symbol_mic": "UDR.XNYS",
          "title": "UDR Inc",
          "aliases": [],
          "is_following": false,
          "watchlist_count": 223,
          "has_pricing": true
        },
        {
          "id": 7871,
          "symbol": "META",
          "symbol_mic": "META.XNAS",
          "title": "Meta Platforms Inc",
          "aliases": [
            "FBOOK",
            "MTVS",
            "FB"
          ],
          "is_following": false,
          "watchlist_count": 529948,
          "has_pricing": true
        },
        {
          "id": 12110,
          "symbol": "CYBR",
          "symbol_mic": "CYBR.XNAS",
          "title": "CyberArk Software Ltd",
          "aliases": [],
          "is_following": false,
          "watchlist_count": 9373,
          "has_pricing": true
        },
        {
          "id": 15735,
          "symbol": "ALTM",
          "symbol_mic": "ALTM.XNAS",
          "title": "Altus Midstream Co - Ordinary Shares - Class A",
          "aliases": [],
          "is_following": false,
          "watchlist_count": 683,
          "has_pricing": true
        }
      ],
      "likes": {
        "total": 1,
        "user_ids": [
          5121325
        ]
      },
      "mentioned_users": [],
      "entities": {
        "sentiment": null
      }
    },
    {
      "id": 557454281,
      "body": "Played $PANW #PANW perfectly, from $292 to $300, $306 to $316. Thing of beauty when technical analysis plans works out. 💪🏼 \n\n$SYMC #SYMC $CYBR #CYBR",
      "created_at": "2024-01-10T21:40:38Z",
      "user": {
        "id": 989975,
        "username": "TradinAlpha",
        "name": "TradinAlpha",
        "avatar_url": "https://avatars.stocktwits.com/production/989975/thumb-1702555224.png",
        "avatar_url_ssl": "https://avatars.stocktwits.com/production/989975/thumb-1702555224.png",
        "join_date": "2017-03-10",
        "official": false,
        "identity": "User",
        "classification": [],
        "home_country": "US",
        "search_regions": [],
        "followers": 6156,
        "following": 53,
        "ideas": 14074,
        "watchlist_stocks_count": 9,
        "like_count": 4035,
        "plus_tier": "",
        "premium_room": "",
        "trade_app": false,
        "trade_status": "PENDING_MFA"
      },
      "source": {
        "id": 1149,
        "title": "StockTwits for iOS",
        "url": "http://www.stocktwits.com/mobile"
      },
      "symbols": [
        {
          "id": 3728,
          "symbol": "SYMC",
          "symbol_mic": "SYMC.XNAS",
          "title": "Symantec Corporation",
          "aliases": [],
          "is_following": false,
          "watchlist_count": 3455,
          "has_pricing": true
        },
        {
          "id": 11279,
          "symbol": "PANW",
          "symbol_mic": "PANW.XNAS",
          "title": "Palo Alto Networks Inc",
          "aliases": [],
          "is_following": false,
          "watchlist_count": 21093,
          "has_pricing": true
        },
        {
          "id": 12110,
          "symbol": "CYBR",
          "symbol_mic": "CYBR.XNAS",
          "title": "CyberArk Software Ltd",
          "aliases": [],
          "is_following": false,
          "watchlist_count": 9375,
          "has_pricing": true
        }
      ],
      "likes": {
        "total": 4,
        "user_ids": [
          349618,
          8527240,
          1154191,
          3352008
        ]
      },
      "mentioned_users": [],
      "entities": {
        "chart": {
          "thumb": "https://charts.stocktwits-cdn.com/cdn-cgi/image/fit=contain,width=175,height=98/production/original_557454281.png",
          "large": "https://charts.stocktwits-cdn.com/cdn-cgi/image/fit=scale-down,width=575/production/original_557454281.png",
          "original": "https://charts.stocktwits-cdn.com/production/original_557454281.png",
          "url": "https://charts.stocktwits-cdn.com/production/original_557454281.png",
          "height": 1084,
          "width": 1070,
          "ratio": 1.01308411
        },
        "sentiment": {
          "basic": "Bullish"
        }
      }
    },
    {
      "id": 557439775,
      "body": "New 52 week highs for $META, $CRWD, $LLY, $CYBR and $DASH\n\nhttps://www.chartmill.com/stock/stock-screener?f=p_pg10,v1_50b500,s_nh,exch_us&amp;v=3&amp;utm_source=New_52_week_high_today&amp;utm_medium=stocktwits&amp;utm_campaign=screen",
      "created_at": "2024-01-10T20:36:00Z",
      "user": {
        "id": 47688,
        "username": "ChartMill",
        "name": "ChartMill",
        "avatar_url": "https://avatars.stocktwits.com/production/47688/thumb-1363343728.png",
        "avatar_url_ssl": "https://avatars.stocktwits.com/production/47688/thumb-1363343728.png",
        "join_date": "2011-01-26",
        "official": false,
        "identity": "User",
        "classification": [],
        "home_country": "BE",
        "search_regions": [],
        "followers": 33570,
        "following": 871,
        "ideas": 2184444,
        "watchlist_stocks_count": 20,
        "like_count": 33,
        "plus_tier": "",
        "premium_room": "",
        "trade_app": false,
        "trade_status": "PENDING_MFA"
      },
      "source": {
        "id": 1135,
        "title": "ChartMill",
        "url": "http://www.chartmill.com"
      },
      "symbols": [
        {
          "id": 6183,
          "symbol": "LLY",
          "symbol_mic": "LLY.XNYS",
          "title": "Lilly(Eli) & Co",
          "aliases": [],
          "is_following": false,
          "watchlist_count": 15252,
          "has_pricing": true
        },
        {
          "id": 7871,
          "symbol": "META",
          "symbol_mic": "META.XNAS",
          "title": "Meta Platforms Inc",
          "aliases": [
            "FBOOK",
            "MTVS",
            "FB"
          ],
          "is_following": false,
          "watchlist_count": 529960,
          "has_pricing": true
        },
        {
          "id": 12110,
          "symbol": "CYBR",
          "symbol_mic": "CYBR.XNAS",
          "title": "CyberArk Software Ltd",
          "aliases": [],
          "is_following": false,
          "watchlist_count": 9375,
          "has_pricing": true
        },
        {
          "id": 15271,
          "symbol": "CRWD",
          "symbol_mic": "CRWD.XNAS",
          "title": "Crowdstrike Holdings Inc",
          "aliases": [],
          "is_following": false,
          "watchlist_count": 40627,
          "has_pricing": true
        },
        {
          "id": 16077,
          "symbol": "DASH",
          "symbol_mic": "DASH.XNAS",
          "title": "DoorDash Inc - Ordinary Shares - Class A",
          "aliases": [],
          "is_following": false,
          "watchlist_count": 16101,
          "has_pricing": true
        }
      ],
      "conversation": {
        "parent_message_id": 557439775,
        "in_reply_to_message_id": null,
        "parent": true,
        "replies": 1
      },
      "links": [
        {
          "title": null,
          "url": "https://www.chartmill.com/stock/stock-screener?f=p_pg10,v1_50b500,s_nh,exch_us&v=3&utm_source=New_52_week_high_today&utm_medium=stocktwits&utm_campaign=screen",
          "shortened_url": "https://stkt.co/ZIxqwh9A",
          "shortened_expanded_url": "chartmill.com/stock/stock-s...",
          "description": null,
          "image": null,
          "created_at": "2024-01-10T20:36:00Z",
          "video_url": null,
          "source": {
            "name": "Chartmill",
            "website": "https://www.chartmill.com"
          }
        }
      ],
      "mentioned_users": [],
      "entities": {
        "sentiment": null
      }
    },
    {
      "id": 557429775,
      "body": "UBS maintains CyberArk Software $CYBR at Buy and raises the price target from $215 to \nhttps://marketsblock.com/stock-upgrades-and-downgrades/",
      "created_at": "2024-01-10T19:48:58Z",
      "user": {
        "id": 891624,
        "username": "erevnon",
        "name": "Erevnon",
        "avatar_url": "https://avatars.stocktwits.com/production/891624/thumb-1498057344.png",
        "avatar_url_ssl": "https://avatars.stocktwits.com/production/891624/thumb-1498057344.png",
        "join_date": "2016-12-01",
        "official": false,
        "identity": "User",
        "classification": [],
        "home_country": "GR",
        "search_regions": [],
        "followers": 61,
        "following": 59,
        "ideas": 8737,
        "watchlist_stocks_count": 11,
        "like_count": 46,
        "plus_tier": "",
        "premium_room": "",
        "trade_app": false,
        "trade_status": "PENDING_MFA"
      },
      "source": {
        "id": 2269,
        "title": "StockTwits Web",
        "url": "https://stocktwits.com"
      },
      "symbols": [
        {
          "id": 12110,
          "symbol": "CYBR",
          "symbol_mic": "CYBR.XNAS",
          "title": "CyberArk Software Ltd",
          "aliases": [],
          "is_following": false,
          "watchlist_count": 9375,
          "has_pricing": true
        }
      ],
      "links": [
        {
          "title": "Stock Upgrades and Downgrades - MarketsBlock",
          "url": "https://marketsblock.com/stock-upgrades-and-downgrades/",
          "shortened_url": "https://stkt.co/9g2imt6u",
          "shortened_expanded_url": "marketsblock.com/stock-upgr...",
          "description": "Stock Upgrades and Downgrades from the best analysts. Get the latest rating changes and the stock price target for stocks",
          "image": "https://marketsblock.com/wp-content/uploads/2022/09/Stock-Upgrades-and-Downgrades-sm.jpg",
          "created_at": "2024-01-10T19:48:59Z",
          "video_url": null,
          "source": {
            "name": "MarketsBlock",
            "website": "https://marketsblock.com"
          }
        }
      ],
      "mentioned_users": [],
      "entities": {
        "chart": {
          "thumb": "https://charts.stocktwits-cdn.com/cdn-cgi/image/fit=contain,width=175,height=98/production/original_557429775.jpg",
          "large": "https://charts.stocktwits-cdn.com/cdn-cgi/image/fit=scale-down,width=575/production/original_557429775.jpg",
          "original": "https://charts.stocktwits-cdn.com/production/original_557429775.jpg",
          "url": "https://charts.stocktwits-cdn.com/production/original_557429775.jpg",
          "height": 323,
          "width": 500,
          "ratio": 0.646
        },
        "sentiment": null
      }
    },
    {
      "id": 557385065,
      "body": "$CYBR CYBR / CyberArk Software Ltd. downgraded by Morgan Stanley\nhttps://fintel.io/sfo/us/cybr?utm_source=stocktwits.com&amp;utm_medium=referral&amp;utm_campaign=upgrade",
      "created_at": "2024-01-10T16:14:57Z",
      "user": {
        "id": 127776,
        "username": "risenhoover",
        "name": "Wilton",
        "avatar_url": "https://avatars.stocktwits.com/production/127776/thumb-1384448707.png",
        "avatar_url_ssl": "https://avatars.stocktwits.com/production/127776/thumb-1384448707.png",
        "join_date": "2012-01-05",
        "official": false,
        "identity": "User",
        "classification": [],
        "home_country": "AU",
        "search_regions": [],
        "followers": 5572,
        "following": 26,
        "ideas": 1207801,
        "watchlist_stocks_count": 1,
        "like_count": 1128,
        "plus_tier": "",
        "premium_room": "",
        "trade_app": false,
        "trade_status": "PENDING_MFA"
      },
      "source": {
        "id": 2883,
        "title": "Fintel.io",
        "url": "https://fintel.io"
      },
      "symbols": [
        {
          "id": 12110,
          "symbol": "CYBR",
          "symbol_mic": "CYBR.XNAS",
          "title": "CyberArk Software Ltd",
          "aliases": [],
          "is_following": false,
          "watchlist_count": 9373,
          "has_pricing": true
        }
      ],
      "links": [
        {
          "title": null,
          "url": "https://fintel.io/sfo/us/cybr?utm_source=stocktwits.com&utm_medium=referral&utm_campaign=upgrade",
          "shortened_url": "https://stkt.co/7bGB0AvC",
          "shortened_expanded_url": "fintel.io/sfo/us/cybr?utm_s...",
          "description": null,
          "image": null,
          "created_at": "2024-01-10T16:14:58Z",
          "video_url": null,
          "source": {
            "name": "Fintel",
            "website": "https://fintel.io"
          }
        }
      ],
      "mentioned_users": [],
      "entities": {
        "sentiment": null
      }
    },
    {
      "id": 557355496,
      "body": "PRICE TARGET CHANGES :\n\nRedburn Atlantic Downgrades Apple to Neutral, Announces $200 Price Target\n\nRaymond James Maintains Outperform on Lululemon Athletica, Raises Price Target to $520\n\nUBS Maintains Neutral on BlackRock, Raises Price Target to $818\n\nUBS Maintains Buy on CyberArk Software, Raises Price Target to $260\n\nWedbush Upgrades Home Depot to Outperform, Raises Price Target to $380\n\n$AAPL $LULU $BLK $CYBR $HD",
      "created_at": "2024-01-10T14:27:58Z",
      "user": {
        "id": 4451239,
        "username": "TheStockTraderHub",
        "name": "The Stock Trader Hub",
        "avatar_url": "https://avatars.stocktwits.com/production/4451239/thumb-1677298660.png",
        "avatar_url_ssl": "https://avatars.stocktwits.com/production/4451239/thumb-1677298660.png",
        "join_date": "2020-12-20",
        "official": false,
        "identity": "User",
        "classification": [
          "verified",
          "plus"
        ],
        "home_country": "US",
        "search_regions": [],
        "followers": 38100,
        "following": 31,
        "ideas": 27189,
        "watchlist_stocks_count": 1,
        "like_count": 1536,
        "plus_tier": "year",
        "premium_room": "thestocktraderhub",
        "trade_app": false,
        "portfolio": "private",
        "portfolio_status": "private",
        "trade_status": "PENDING_SUBMIT"
      },
      "source": {
        "id": 2095,
        "title": "StockTwits For Android ",
        "url": "http://www.stocktwits.com/mobile"
      },
      "symbols": [
        {
          "id": 686,
          "symbol": "AAPL",
          "symbol_mic": "AAPL.XNAS",
          "title": "Apple Inc.",
          "aliases": [],
          "is_following": false,
          "watchlist_count": 905142,
          "has_pricing": true
        },
        {
          "id": 2562,
          "symbol": "LULU",
          "symbol_mic": "LULU.XNAS",
          "title": "Lululemon Athletica inc.",
          "aliases": [],
          "is_following": false,
          "watchlist_count": 34612,
          "has_pricing": true
        },
        {
          "id": 4544,
          "symbol": "BLK",
          "symbol_mic": "BLK.XNYS",
          "title": "Blackrock Inc.",
          "aliases": [],
          "is_following": false,
          "watchlist_count": 10202,
          "has_pricing": true
        },
        {
          "id": 5650,
          "symbol": "HD",
          "symbol_mic": "HD.XNYS",
          "title": "Home Depot, Inc.",
          "aliases": [],
          "is_following": false,
          "watchlist_count": 40693,
          "has_pricing": true
        },
        {
          "id": 12110,
          "symbol": "CYBR",
          "symbol_mic": "CYBR.XNAS",
          "title": "CyberArk Software Ltd",
          "aliases": [],
          "is_following": false,
          "watchlist_count": 9375,
          "has_pricing": true
        }
      ],
      "likes": {
        "total": 2,
        "user_ids": [
          919426,
          3585722
        ]
      },
      "mentioned_users": [],
      "entities": {
        "sentiment": null
      }
    },
    {
      "id": 557180193,
      "body": "Morgan Stanley downgrades CyberArk Software $CYBR from Overweight to Equal-Weight and raises the price target from $195 to \nhttps://marketsblock.com/stock-upgrades-and-downgrades/",
      "created_at": "2024-01-09T11:13:40Z",
      "user": {
        "id": 891624,
        "username": "erevnon",
        "name": "Erevnon",
        "avatar_url": "https://avatars.stocktwits.com/production/891624/thumb-1498057344.png",
        "avatar_url_ssl": "https://avatars.stocktwits.com/production/891624/thumb-1498057344.png",
        "join_date": "2016-12-01",
        "official": false,
        "identity": "User",
        "classification": [],
        "home_country": "GR",
        "search_regions": [],
        "followers": 61,
        "following": 59,
        "ideas": 8737,
        "watchlist_stocks_count": 11,
        "like_count": 46,
        "plus_tier": "",
        "premium_room": "",
        "trade_app": false,
        "trade_status": "PENDING_MFA"
      },
      "source": {
        "id": 2269,
        "title": "StockTwits Web",
        "url": "https://stocktwits.com"
      },
      "symbols": [
        {
          "id": 12110,
          "symbol": "CYBR",
          "symbol_mic": "CYBR.XNAS",
          "title": "CyberArk Software Ltd",
          "aliases": [],
          "is_following": false,
          "watchlist_count": 9373,
          "has_pricing": true
        }
      ],
      "links": [
        {
          "title": "Stock Upgrades and Downgrades - MarketsBlock",
          "url": "https://marketsblock.com/stock-upgrades-and-downgrades/",
          "shortened_url": "https://stkt.co/efWc0pUt",
          "shortened_expanded_url": "marketsblock.com/stock-upgr...",
          "description": "Stock Upgrades and Downgrades from the best analysts. Get the latest rating changes and the stock price target for stocks",
          "image": "https://marketsblock.com/wp-content/uploads/2022/09/Stock-Upgrades-and-Downgrades-sm.jpg",
          "created_at": "2024-01-09T11:13:41Z",
          "video_url": null,
          "source": {
            "name": "MarketsBlock",
            "website": "https://marketsblock.com"
          }
        }
      ],
      "mentioned_users": [],
      "entities": {
        "chart": {
          "thumb": "https://charts.stocktwits-cdn.com/cdn-cgi/image/fit=contain,width=175,height=98/production/original_557180193.jpg",
          "large": "https://charts.stocktwits-cdn.com/cdn-cgi/image/fit=scale-down,width=575/production/original_557180193.jpg",
          "original": "https://charts.stocktwits-cdn.com/production/original_557180193.jpg",
          "url": "https://charts.stocktwits-cdn.com/production/original_557180193.jpg",
          "height": 323,
          "width": 500,
          "ratio": 0.646
        },
        "sentiment": null
      }
    },
    {
      "id": 557176965,
      "body": "$CYBR NEW ARTICLE : Cautious Hold on CyberArk: Balancing Growth Prospects with Valuation Concerns https://www.stck.pro/news/CYBR/72132567/",
      "created_at": "2024-01-09T09:19:01Z",
      "user": {
        "id": 1555408,
        "username": "STCKPRO",
        "name": "STCK.PRO",
        "avatar_url": "https://avatars.stocktwits.com/production/1555408/thumb-1576077822.png",
        "avatar_url_ssl": "https://avatars.stocktwits.com/production/1555408/thumb-1576077822.png",
        "join_date": "2018-07-24",
        "official": false,
        "identity": "User",
        "classification": [],
        "home_country": "ES",
        "search_regions": [],
        "followers": 10886,
        "following": 2,
        "ideas": 1476880,
        "watchlist_stocks_count": 0,
        "like_count": 52,
        "plus_tier": "",
        "premium_room": "",
        "trade_app": false,
        "trade_status": "PENDING_MFA"
      },
      "source": {
        "id": 5011,
        "title": "STCK.PRO",
        "url": "https://www.stck.pro"
      },
      "symbols": [
        {
          "id": 12110,
          "symbol": "CYBR",
          "symbol_mic": "CYBR.XNAS",
          "title": "CyberArk Software Ltd",
          "aliases": [],
          "is_following": false,
          "watchlist_count": 9373,
          "has_pricing": true
        }
      ],
      "links": [
        {
          "title": null,
          "url": "https://www.stck.pro/news/CYBR/72132567/",
          "shortened_url": "https://stkt.co/FWhDzzs8",
          "shortened_expanded_url": "stck.pro/news/CYBR/72132567/",
          "description": null,
          "image": null,
          "created_at": "2024-01-09T09:19:01Z",
          "video_url": null,
          "source": {
            "name": "Stck",
            "website": "https://www.stck.pro"
          }
        }
      ],
      "mentioned_users": [],
      "entities": {
        "sentiment": null
      }
    },
    {
      "id": 557105624,
      "body": "Oppenheimer maintains CyberArk Software $CYBR at Outperform and raises the price target from $195 to \nhttps://marketsblock.com/stock-upgrades-and-downgrades/",
      "created_at": "2024-01-08T19:09:57Z",
      "user": {
        "id": 891624,
        "username": "erevnon",
        "name": "Erevnon",
        "avatar_url": "https://avatars.stocktwits.com/production/891624/thumb-1498057344.png",
        "avatar_url_ssl": "https://avatars.stocktwits.com/production/891624/thumb-1498057344.png",
        "join_date": "2016-12-01",
        "official": false,
        "identity": "User",
        "classification": [],
        "home_country": "GR",
        "search_regions": [],
        "followers": 61,
        "following": 59,
        "ideas": 8737,
        "watchlist_stocks_count": 11,
        "like_count": 46,
        "plus_tier": "",
        "premium_room": "",
        "trade_app": false,
        "trade_status": "PENDING_MFA"
      },
      "source": {
        "id": 2269,
        "title": "StockTwits Web",
        "url": "https://stocktwits.com"
      },
      "symbols": [
        {
          "id": 12110,
          "symbol": "CYBR",
          "symbol_mic": "CYBR.XNAS",
          "title": "CyberArk Software Ltd",
          "aliases": [],
          "is_following": false,
          "watchlist_count": 9375,
          "has_pricing": true
        }
      ],
      "links": [
        {
          "title": "Stock Upgrades and Downgrades - MarketsBlock",
          "url": "https://marketsblock.com/stock-upgrades-and-downgrades/",
          "shortened_url": "https://stkt.co/Ue7eMFnp",
          "shortened_expanded_url": "marketsblock.com/stock-upgr...",
          "description": "Stock Upgrades and Downgrades from the best analysts. Get the latest rating changes and the stock price target for stocks",
          "image": "https://marketsblock.com/wp-content/uploads/2022/09/Stock-Upgrades-and-Downgrades-sm.jpg",
          "created_at": "2024-01-08T19:09:57Z",
          "video_url": null,
          "source": {
            "name": "MarketsBlock",
            "website": "https://marketsblock.com"
          }
        }
      ],
      "mentioned_users": [],
      "entities": {
        "chart": {
          "thumb": "https://charts.stocktwits-cdn.com/cdn-cgi/image/fit=contain,width=175,height=98/production/original_557105624.jpg",
          "large": "https://charts.stocktwits-cdn.com/cdn-cgi/image/fit=scale-down,width=575/production/original_557105624.jpg",
          "original": "https://charts.stocktwits-cdn.com/production/original_557105624.jpg",
          "url": "https://charts.stocktwits-cdn.com/production/original_557105624.jpg",
          "height": 323,
          "width": 500,
          "ratio": 0.646
        },
        "sentiment": null
      }
    },
    {
      "id": 556909045,
      "body": "$YCRM This pr is from September 2022 and at that time Reachout Technology #cybersecurity had a valuation of 30-40 million.  45+ employees,  easily verifiable legitimate business,  kevinharrington on the board and he is also an investor 500 employees by 2025 via aquisitions\n$SPZI $RMSL $CYBR $PANW \nhttps://www.einnews.com/pr_news/592911850/cybersecurity-industry-leader-reachout-technology-closes-on-first-successful-acquisition-value-soars-to-30-40m",
      "created_at": "2024-01-05T22:27:00Z",
      "user": {
        "id": 8494322,
        "username": "rtoms",
        "name": "Ryan Toms",
        "avatar_url": "https://avatars.stocktwits.com/production/8494322/thumb-1698189868.png",
        "avatar_url_ssl": "https://avatars.stocktwits.com/production/8494322/thumb-1698189868.png",
        "join_date": "2023-10-20",
        "official": false,
        "identity": "User",
        "classification": [],
        "home_country": "US",
        "search_regions": [],
        "followers": 12,
        "following": 9,
        "ideas": 344,
        "watchlist_stocks_count": 48,
        "like_count": 140,
        "plus_tier": "",
        "premium_room": "",
        "trade_app": false,
        "trade_status": "PENDING_MFA"
      },
      "source": {
        "id": 2095,
        "title": "StockTwits For Android ",
        "url": "http://www.stocktwits.com/mobile"
      },
      "symbols": [
        {
          "id": 11279,
          "symbol": "PANW",
          "symbol_mic": "PANW.XNAS",
          "title": "Palo Alto Networks Inc",
          "aliases": [],
          "is_following": false,
          "watchlist_count": 21093,
          "has_pricing": true
        },
        {
          "id": 12110,
          "symbol": "CYBR",
          "symbol_mic": "CYBR.XNAS",
          "title": "CyberArk Software Ltd",
          "aliases": [],
          "is_following": false,
          "watchlist_count": 9375,
          "has_pricing": true
        },
        {
          "id": 16671,
          "symbol": "RMSL",
          "symbol_mic": "RMSL.OOTC",
          "title": "REMSleep Holdings, Inc",
          "aliases": [],
          "is_following": false,
          "watchlist_count": 5174,
          "has_pricing": true
        },
        {
          "id": 18565,
          "symbol": "SPZI",
          "symbol_mic": "SPZI.OOTC",
          "title": "Spooz",
          "aliases": [],
          "is_following": false,
          "watchlist_count": 2026,
          "has_pricing": true
        },
        {
          "id": 29011,
          "symbol": "YCRM",
          "symbol_mic": "YCRM.OOTC",
          "title": "Yuengling's Ice Cream Corporation",
          "aliases": [],
          "is_following": false,
          "watchlist_count": 474,
          "has_pricing": true
        }
      ],
      "links": [
        {
          "title": null,
          "url": "https://www.einnews.com/pr_news/592911850/cybersecurity-industry-leader-reachout-technology-closes-on-first-successful-acquisition-value-soars-to-30-40m",
          "shortened_url": "https://stkt.co/Syfc30Lf",
          "shortened_expanded_url": "einnews.com/pr_news/5929118...",
          "description": null,
          "image": null,
          "created_at": "2024-01-05T22:27:10Z",
          "video_url": null,
          "source": {
            "name": null,
            "website": null
          }
        }
      ],
      "likes": {
        "total": 6,
        "user_ids": [
          8395985,
          5506305,
          8559539,
          4681624,
          5079490,
          5257040
        ]
      },
      "mentioned_users": [],
      "entities": {
        "sentiment": {
          "basic": "Bullish"
        }
      }
    },
    {
      "id": 556846118,
      "body": "BoA notes that with major network hacks occurring almost weekly, cybersecurity stocks are the place to invest in 2024. \n \n“2023 was a strong year for cybersecurity stocks as IT budgets remained robust despite tough macro conditions. Heading into 2024, we remain positive on sector fundamentals, supported by growing enterprise cybersecurity budgets, platformization, and cloud transformation. Yet, we also flag a few risk factors. The industry reported on weaker billings, longer sales cycles, and increased spending scrutiny, and only time will tell if these are just minor adjustments to the business environment or the beginning of a slower cycle. In addition, valuation levels are fairly rich after the strong stock performances in 2023 \n \nWe maintain our Buy ratings on $CRWD &amp; $ZS, but favor the relative 2023 underperformers, namely $FTNT &amp; $CYBR",
      "created_at": "2024-01-05T16:13:59Z",
      "user": {
        "id": 11403,
        "username": "Ro_Patel",
        "name": "Ro Patel",
        "avatar_url": "https://avatars.stocktwits.com/production/11403/thumb-1491151253.png",
        "avatar_url_ssl": "https://avatars.stocktwits.com/production/11403/thumb-1491151253.png",
        "join_date": "2010-03-26",
        "official": true,
        "identity": "Official",
        "classification": [
          "suggested",
          "official"
        ],
        "home_country": "US",
        "search_regions": [],
        "followers": 41857,
        "following": 107,
        "ideas": 44420,
        "watchlist_stocks_count": 53,
        "like_count": 1885,
        "plus_tier": "",
        "premium_room": "",
        "trade_app": false,
        "trade_status": "PENDING_MFA"
      },
      "source": {
        "id": 2269,
        "title": "StockTwits Web",
        "url": "https://stocktwits.com"
      },
      "symbols": [
        {
          "id": 7958,
          "symbol": "FTNT",
          "symbol_mic": "FTNT.XNAS",
          "title": "Fortinet Inc",
          "aliases": [],
          "is_following": false,
          "watchlist_count": 9055,
          "has_pricing": true
        },
        {
          "id": 12110,
          "symbol": "CYBR",
          "symbol_mic": "CYBR.XNAS",
          "title": "CyberArk Software Ltd",
          "aliases": [],
          "is_following": false,
          "watchlist_count": 9375,
          "has_pricing": true
        },
        {
          "id": 14485,
          "symbol": "ZS",
          "symbol_mic": "ZS.XNAS",
          "title": "Zscaler Inc",
          "aliases": [],
          "is_following": false,
          "watchlist_count": 16134,
          "has_pricing": true
        },
        {
          "id": 15271,
          "symbol": "CRWD",
          "symbol_mic": "CRWD.XNAS",
          "title": "Crowdstrike Holdings Inc",
          "aliases": [],
          "is_following": false,
          "watchlist_count": 40628,
          "has_pricing": true
        }
      ],
      "likes": {
        "total": 4,
        "user_ids": [
          3025654,
          3592631,
          2793934,
          1131507
        ]
      },
      "mentioned_users": [],
      "entities": {
        "sentiment": {
          "basic": "Bullish"
        }
      }
    },
    {
      "id": 556668416,
      "body": "$CYBR CyberArk to Announce Fourth Quarter and Year End 2023 Financial Results on February 8\nhttps://www.stocktitan.net/news/CYBR/cyber-ark-to-announce-fourth-quarter-and-year-end-2023-financial-4cidzs83yy69.html",
      "created_at": "2024-01-04T13:00:11Z",
      "user": {
        "id": 3372441,
        "username": "Stock_Titan",
        "name": "StockTitan",
        "avatar_url": "https://avatars.stocktwits.com/production/3372441/thumb-1697316817.png",
        "avatar_url_ssl": "https://avatars.stocktwits.com/production/3372441/thumb-1697316817.png",
        "join_date": "2020-04-28",
        "official": false,
        "identity": "User",
        "classification": [],
        "home_country": "IT",
        "search_regions": [],
        "followers": 3213,
        "following": 0,
        "ideas": 545221,
        "watchlist_stocks_count": 0,
        "like_count": 0,
        "plus_tier": "",
        "premium_room": "",
        "trade_app": false,
        "trade_status": "PENDING_MFA"
      },
      "source": {
        "id": 5677,
        "title": "StockTitan",
        "url": "https://stocktitan.net"
      },
      "symbols": [
        {
          "id": 12110,
          "symbol": "CYBR",
          "symbol_mic": "CYBR.XNAS",
          "title": "CyberArk Software Ltd",
          "aliases": [],
          "is_following": false,
          "watchlist_count": 9373,
          "has_pricing": true
        }
      ],
      "links": [
        {
          "title": "CyberArk to Announce Fourth Quarter and Year End 2023 Financial Results on February 8",
          "url": "https://www.stocktitan.net/news/CYBR/cyber-ark-to-announce-fourth-quarter-and-year-end-2023-financial-4cidzs83yy69.html",
          "shortened_url": "https://stkt.co/cvOrw5YK",
          "shortened_expanded_url": "stocktitan.net/news/CYBR/cy...",
          "description": "CyberArk (CYBR) to Report Q4 and Year End 2023 Financial Results on February 8, 2024",
          "image": "https://static.stocktitan.net/company-logo/CYBR-lg.png",
          "created_at": "2024-01-04T13:00:12Z",
          "video_url": null,
          "source": {
            "name": "Stocktitan",
            "website": "https://www.stocktitan.net"
          }
        }
      ],
      "mentioned_users": [],
      "entities": {
        "sentiment": null
      }
    },
    {
      "id": 556561316,
      "body": "$CYBR barely has given anything up. One of the few leaders that hasn’t been crushed in 2 days",
      "created_at": "2024-01-03T15:49:38Z",
      "user": {
        "id": 2243776,
        "username": "AnchorsAweigh",
        "name": "AnchorsAweigh",
        "avatar_url": "https://avatars.stocktwits.com/production/2243776/thumb-1704152166.png",
        "avatar_url_ssl": "https://avatars.stocktwits.com/production/2243776/thumb-1704152166.png",
        "join_date": "2019-08-06",
        "official": false,
        "identity": "User",
        "classification": [
          "suggested"
        ],
        "home_country": "US",
        "search_regions": [],
        "followers": 1482,
        "following": 112,
        "ideas": 43974,
        "watchlist_stocks_count": 294,
        "like_count": 23736,
        "plus_tier": "",
        "premium_room": "",
        "trade_app": false,
        "trade_status": "PENDING_MFA"
      },
      "source": {
        "id": 1149,
        "title": "StockTwits for iOS",
        "url": "http://www.stocktwits.com/mobile"
      },
      "symbols": [
        {
          "id": 12110,
          "symbol": "CYBR",
          "symbol_mic": "CYBR.XNAS",
          "title": "CyberArk Software Ltd",
          "aliases": [],
          "is_following": false,
          "watchlist_count": 9373,
          "has_pricing": true
        }
      ],
      "conversation": {
        "parent_message_id": 556561316,
        "in_reply_to_message_id": null,
        "parent": true,
        "replies": 2
      },
      "likes": {
        "total": 1,
        "user_ids": [
          686583
        ]
      },
      "mentioned_users": [],
      "entities": {
        "sentiment": null
      }
    },
    {
      "id": 556344694,
      "body": "A.I.dvisor made a bullish call on $CYBR, netting in a 20.69% gain over 1 month https://srnk.us/go/4956924",
      "created_at": "2024-01-01T12:40:15Z",
      "user": {
        "id": 967528,
        "username": "tickeron",
        "name": "Tickeron",
        "avatar_url": "https://avatars.stocktwits.com/production/967528/thumb-1492026736.png",
        "avatar_url_ssl": "https://avatars.stocktwits.com/production/967528/thumb-1492026736.png",
        "join_date": "2017-02-23",
        "official": true,
        "identity": "Official",
        "classification": [
          "official"
        ],
        "home_country": "US",
        "search_regions": [],
        "followers": 14078,
        "following": 108,
        "ideas": 1410285,
        "watchlist_stocks_count": 0,
        "like_count": 0,
        "plus_tier": "",
        "premium_room": "",
        "trade_app": false,
        "trade_status": "PENDING_MFA"
      },
      "source": {
        "id": 5810,
        "title": "Tickeron",
        "url": "https://tickeron.com"
      },
      "symbols": [
        {
          "id": 12110,
          "symbol": "CYBR",
          "symbol_mic": "CYBR.XNAS",
          "title": "CyberArk Software Ltd",
          "aliases": [],
          "is_following": false,
          "watchlist_count": 9373,
          "has_pricing": true
        }
      ],
      "links": [
        {
          "title": "Stock Pattern Broadening Wedge Ascending CYBR on November 07, 2023",
          "url": "https://srnk.us/go/4956924",
          "shortened_url": "https://stkt.co/W2jdYFgk",
          "shortened_expanded_url": "tickeron.com/news/39337071/",
          "description": "On November 07, 2023, A.I.dvisor detected a Broadening Wedge Ascending Pattern (Bullish) for CyberArk Software Ltd (CYBR, $182.64). On November 08, 2023, A.I.dvisor confirmed the Bullish pattern, setting a target price of $221.90. 49 days later, on December 27, 2023, CYBR reached the target price resulting in a +20.69% for traders who took a long position in the stock.",
          "image": null,
          "created_at": "2024-01-01T12:40:18Z",
          "video_url": null,
          "source": {
            "name": "Tickeron",
            "website": "https://tickeron.com"
          }
        }
      ],
      "likes": {
        "total": 1,
        "user_ids": [
          5121325
        ]
      },
      "mentioned_users": [],
      "entities": {
        "chart": {
          "thumb": "https://charts.stocktwits-cdn.com/cdn-cgi/image/fit=contain,width=175,height=98/production/original_556344694.png",
          "large": "https://charts.stocktwits-cdn.com/cdn-cgi/image/fit=scale-down,width=575/production/original_556344694.png",
          "original": "https://charts.stocktwits-cdn.com/production/original_556344694.png",
          "url": "https://charts.stocktwits-cdn.com/production/original_556344694.png",
          "height": 630,
          "width": 1200,
          "ratio": 0.525
        },
        "sentiment": {
          "basic": "Bullish"
        }
      }
    },
    {
      "id": 556263441,
      "body": "@SonGoku $S $CYBR $QLYS $AKAM are some other notable names with similar trends. GL",
      "created_at": "2023-12-30T03:35:33Z",
      "user": {
        "id": 1694783,
        "username": "SimpleEasy",
        "name": "Haywood",
        "avatar_url": "https://avatars.stocktwits.com/production/1694783/thumb-1659058645.png",
        "avatar_url_ssl": "https://avatars.stocktwits.com/production/1694783/thumb-1659058645.png",
        "join_date": "2018-11-03",
        "official": false,
        "identity": "User",
        "classification": [],
        "search_regions": [],
        "followers": 58,
        "following": 131,
        "ideas": 1011,
        "watchlist_stocks_count": 46,
        "like_count": 2293,
        "plus_tier": "",
        "premium_room": "",
        "trade_app": false,
        "trade_status": "PENDING_MFA"
      },
      "source": {
        "id": 1149,
        "title": "StockTwits for iOS",
        "url": "http://www.stocktwits.com/mobile"
      },
      "symbols": [
        {
          "id": 793,
          "symbol": "AKAM",
          "symbol_mic": "AKAM.XNAS",
          "title": "Akamai Technologies Inc",
          "aliases": [],
          "is_following": false,
          "watchlist_count": 5231,
          "has_pricing": true
        },
        {
          "id": 7127,
          "symbol": "S",
          "symbol_mic": "S.XNYS",
          "title": "SentinelOne Inc",
          "aliases": [],
          "is_following": false,
          "watchlist_count": 26827,
          "has_pricing": true
        },
        {
          "id": 11320,
          "symbol": "QLYS",
          "symbol_mic": "QLYS.XNAS",
          "title": "Qualys Inc",
          "aliases": [],
          "is_following": false,
          "watchlist_count": 1678,
          "has_pricing": true
        },
        {
          "id": 12110,
          "symbol": "CYBR",
          "symbol_mic": "CYBR.XNAS",
          "title": "CyberArk Software Ltd",
          "aliases": [],
          "is_following": false,
          "watchlist_count": 9375,
          "has_pricing": true
        }
      ],
      "conversation": {
        "parent_message_id": 556261520,
        "in_reply_to_message_id": 556261520,
        "parent": false,
        "replies": 2
      },
      "likes": {
        "total": 1,
        "user_ids": [
          811974
        ]
      },
      "mentioned_users": [
        "@SonGoku"
      ],
      "entities": {
        "sentiment": null
      }
    },
    {
      "id": 555652899,
      "body": "$CYBR with the #JustKeepSwimming look, into ATHs above key $200 level on volume \n \nDD ^^ still 👌👌... great ticker",
      "created_at": "2023-12-23T18:01:27Z",
      "user": {
        "id": 748375,
        "username": "FlynancialAnalyst",
        "name": "Logan McNulty",
        "avatar_url": "https://avatars.stocktwits.com/production/748375/thumb-1626888184.png",
        "avatar_url_ssl": "https://avatars.stocktwits.com/production/748375/thumb-1626888184.png",
        "join_date": "2016-05-09",
        "official": false,
        "identity": "User",
        "classification": [
          "suggested"
        ],
        "home_country": "US",
        "search_regions": [],
        "followers": 16212,
        "following": 217,
        "ideas": 52247,
        "watchlist_stocks_count": 4,
        "like_count": 49440,
        "plus_tier": "",
        "premium_room": "",
        "trade_app": false,
        "trade_status": "PENDING_MFA"
      },
      "source": {
        "id": 2269,
        "title": "StockTwits Web",
        "url": "https://stocktwits.com"
      },
      "symbols": [
        {
          "id": 12110,
          "symbol": "CYBR",
          "symbol_mic": "CYBR.XNAS",
          "title": "CyberArk Software Ltd",
          "aliases": [],
          "is_following": false,
          "watchlist_count": 9375,
          "has_pricing": true
        }
      ],
      "conversation": {
        "parent_message_id": 553084080,
        "in_reply_to_message_id": 553085362,
        "parent": false,
        "replies": 43
      },
      "mentioned_users": [],
      "entities": {
        "chart": {
          "thumb": "https://charts.stocktwits-cdn.com/cdn-cgi/image/fit=contain,width=175,height=98/production/original_555652899.png",
          "large": "https://charts.stocktwits-cdn.com/cdn-cgi/image/fit=scale-down,width=575/production/original_555652899.png",
          "original": "https://charts.stocktwits-cdn.com/production/original_555652899.png",
          "url": "https://charts.stocktwits-cdn.com/production/original_555652899.png",
          "height": 870,
          "width": 1696,
          "ratio": 0.5129717
        },
        "sentiment": {
          "basic": "Bullish"
        }
      }
    },
    {
      "id": 555450302,
      "body": "$CYBR slowly climbing",
      "created_at": "2023-12-21T20:59:09Z",
      "user": {
        "id": 5121325,
        "username": "megweich",
        "name": "Meg",
        "avatar_url": "http://avatars.stocktwits.com/images/default_avatar_thumb.jpg",
        "avatar_url_ssl": "https://avatars.stocktwits.com/images/default_avatar_thumb.jpg",
        "join_date": "2021-02-23",
        "official": false,
        "identity": "User",
        "classification": [],
        "home_country": "US",
        "search_regions": [],
        "followers": 3,
        "following": 0,
        "ideas": 117,
        "watchlist_stocks_count": 50,
        "like_count": 1991,
        "plus_tier": "",
        "premium_room": "",
        "trade_app": false,
        "trade_status": "PENDING_MFA"
      },
      "source": {
        "id": 1149,
        "title": "StockTwits for iOS",
        "url": "http://www.stocktwits.com/mobile"
      },
      "symbols": [
        {
          "id": 12110,
          "symbol": "CYBR",
          "symbol_mic": "CYBR.XNAS",
          "title": "CyberArk Software Ltd",
          "aliases": [],
          "is_following": false,
          "watchlist_count": 9375,
          "has_pricing": true
        }
      ],
      "likes": {
        "total": 1,
        "user_ids": [
          910991
        ]
      },
      "mentioned_users": [],
      "entities": {
        "sentiment": {
          "basic": "Bullish"
        }
      }
    },
    {
      "id": 555433853,
      "body": "When the 🧠’s are huckleberry riding winning this $duol making a DASH in $cybr it shall continue to spread QUIK RPD n at LSPD n even if they caught da 🐑 CHSN 🧠 has yet to BRAG n go YRD!   Chop chop huckleberries 🧠⏰",
      "created_at": "2023-12-21T19:35:27Z",
      "user": {
        "id": 91181,
        "username": "Doozio",
        "name": "J",
        "avatar_url": "https://avatars.stocktwits.com/production/91181/thumb-1543511825.png",
        "avatar_url_ssl": "https://avatars.stocktwits.com/production/91181/thumb-1543511825.png",
        "join_date": "2011-07-07",
        "official": false,
        "identity": "User",
        "classification": [
          "suggested",
          "plus"
        ],
        "search_regions": [],
        "followers": 45716,
        "following": 420,
        "ideas": 93789,
        "watchlist_stocks_count": 300,
        "like_count": 25277,
        "plus_tier": "year",
        "premium_room": "",
        "trade_app": false,
        "trade_status": "PENDING_MFA"
      },
      "source": {
        "id": 1149,
        "title": "StockTwits for iOS",
        "url": "http://www.stocktwits.com/mobile"
      },
      "symbols": [
        {
          "id": 12110,
          "symbol": "CYBR",
          "symbol_mic": "CYBR.XNAS",
          "title": "CyberArk Software Ltd",
          "aliases": [],
          "is_following": false,
          "watchlist_count": 9375,
          "has_pricing": true
        },
        {
          "id": 20361,
          "symbol": "DUOL",
          "symbol_mic": "DUOL.XNAS",
          "title": "Duolingo Inc",
          "aliases": [],
          "is_following": false,
          "watchlist_count": 1915,
          "has_pricing": true
        }
      ],
      "mentioned_users": [],
      "entities": {
        "giphy": {
          "id": "54BOTevKLZuZMeQRCf",
          "ratio": 1.3333333333333333
        },
        "sentiment": {
          "basic": "Bullish"
        }
      }
    },
    {
      "id": 555214001,
      "body": "$cybr closes year on dead highs then final 🐑 term blowoff move into 250/60ish area while 🧠 finishes making its initial DASH? Then all the bahhh is a 🎁 during chop while bears say marker just had its blow off top but it’s really just the beginning 🧠⏰♾️",
      "created_at": "2023-12-20T15:27:49Z",
      "user": {
        "id": 91181,
        "username": "Doozio",
        "name": "J",
        "avatar_url": "https://avatars.stocktwits.com/production/91181/thumb-1543511825.png",
        "avatar_url_ssl": "https://avatars.stocktwits.com/production/91181/thumb-1543511825.png",
        "join_date": "2011-07-07",
        "official": false,
        "identity": "User",
        "classification": [
          "suggested",
          "plus"
        ],
        "search_regions": [],
        "followers": 45716,
        "following": 420,
        "ideas": 93789,
        "watchlist_stocks_count": 300,
        "like_count": 25277,
        "plus_tier": "year",
        "premium_room": "",
        "trade_app": false,
        "trade_status": "PENDING_MFA"
      },
      "source": {
        "id": 1149,
        "title": "StockTwits for iOS",
        "url": "http://www.stocktwits.com/mobile"
      },
      "symbols": [
        {
          "id": 12110,
          "symbol": "CYBR",
          "symbol_mic": "CYBR.XNAS",
          "title": "CyberArk Software Ltd",
          "aliases": [],
          "is_following": false,
          "watchlist_count": 9375,
          "has_pricing": true
        }
      ],
      "likes": {
        "total": 1,
        "user_ids": [
          5121325
        ]
      },
      "mentioned_users": [],
      "entities": {
        "giphy": {
          "id": "6uGhT1O4sxpi8",
          "ratio": 2.0
        },
        "sentiment": {
          "basic": "Bullish"
        }
      }
    },
    {
      "id": 555186571,
      "body": "$CYBR CyberArk Named an Overall Cloud Infrastructure Entitlement Management (CIEM) Leader by KuppingerCole Analysts\nhttps://www.stocktitan.net/news/CYBR/cyber-ark-named-an-overall-cloud-infrastructure-entitlement-kiw587bsij0l.html",
      "created_at": "2023-12-20T13:30:11Z",
      "user": {
        "id": 3372441,
        "username": "Stock_Titan",
        "name": "StockTitan",
        "avatar_url": "https://avatars.stocktwits.com/production/3372441/thumb-1697316817.png",
        "avatar_url_ssl": "https://avatars.stocktwits.com/production/3372441/thumb-1697316817.png",
        "join_date": "2020-04-28",
        "official": false,
        "identity": "User",
        "classification": [],
        "home_country": "IT",
        "search_regions": [],
        "followers": 3213,
        "following": 0,
        "ideas": 545221,
        "watchlist_stocks_count": 0,
        "like_count": 0,
        "plus_tier": "",
        "premium_room": "",
        "trade_app": false,
        "trade_status": "PENDING_MFA"
      },
      "source": {
        "id": 5677,
        "title": "StockTitan",
        "url": "https://stocktitan.net"
      },
      "symbols": [
        {
          "id": 12110,
          "symbol": "CYBR",
          "symbol_mic": "CYBR.XNAS",
          "title": "CyberArk Software Ltd",
          "aliases": [],
          "is_following": false,
          "watchlist_count": 9373,
          "has_pricing": true
        }
      ],
      "links": [
        {
          "title": "CyberArk Named an Overall Cloud Infrastructure Entitlement Management (CIEM) Leader by KuppingerCole Analysts",
          "url": "https://www.stocktitan.net/news/CYBR/cyber-ark-named-an-overall-cloud-infrastructure-entitlement-kiw587bsij0l.html",
          "shortened_url": "https://stkt.co/1bmbrPAH",
          "shortened_expanded_url": "stocktitan.net/news/CYBR/cy...",
          "description": "NEWTON, Mass.&amp; PETACH TIKVA, Israel---- CyberArk, the identity security company, today announced it was named an Overall Leader in the KuppingerCole Analysts AG 2023\" Leadership Compass: Cloud Infrastructure Entitlement Management\" 1 report. The company' s leadership is based on the strength of the CyberArk Identity Security Platform and its innovative cloud...",
          "image": "https://static.stocktitan.net/company-logo/CYBR-lg.png",
          "created_at": "2023-12-20T13:30:12Z",
          "video_url": null,
          "source": {
            "name": "Stocktitan",
            "website": "https://www.stocktitan.net"
          }
        }
      ],
      "mentioned_users": [],
      "entities": {
        "sentiment": null
      }
    },
    {
      "id": 555177229,
      "body": "$CYBR NEW ARTICLE : Wells Fargo Keeps Their Buy Rating on CyberArk Software (CYBR) https://www.stck.pro/news/CYBR/70624090/",
      "created_at": "2023-12-20T11:54:22Z",
      "user": {
        "id": 1555408,
        "username": "STCKPRO",
        "name": "STCK.PRO",
        "avatar_url": "https://avatars.stocktwits.com/production/1555408/thumb-1576077822.png",
        "avatar_url_ssl": "https://avatars.stocktwits.com/production/1555408/thumb-1576077822.png",
        "join_date": "2018-07-24",
        "official": false,
        "identity": "User",
        "classification": [],
        "home_country": "ES",
        "search_regions": [],
        "followers": 10884,
        "following": 2,
        "ideas": 1476929,
        "watchlist_stocks_count": 0,
        "like_count": 52,
        "plus_tier": "",
        "premium_room": "",
        "trade_app": false,
        "trade_status": "PENDING_MFA"
      },
      "source": {
        "id": 5011,
        "title": "STCK.PRO",
        "url": "https://www.stck.pro"
      },
      "symbols": [
        {
          "id": 12110,
          "symbol": "CYBR",
          "symbol_mic": "CYBR.XNAS",
          "title": "CyberArk Software Ltd",
          "aliases": [],
          "is_following": false,
          "watchlist_count": 9373,
          "has_pricing": true
        }
      ],
      "links": [
        {
          "title": null,
          "url": "https://www.stck.pro/news/CYBR/70624090/",
          "shortened_url": "https://stkt.co/MJIBAaFe",
          "shortened_expanded_url": "stck.pro/news/CYBR/70624090/",
          "description": null,
          "image": null,
          "created_at": "2023-12-20T11:54:22Z",
          "video_url": null,
          "source": {
            "name": "Stck",
            "website": "https://www.stck.pro"
          }
        }
      ],
      "mentioned_users": [],
      "entities": {
        "sentiment": null
      }
    },
    {
      "id": 555050565,
      "body": "This is why Hedge Funds use A.I. $CYBR RSI Indicator left the overbought zone. View odds of downtrend. https://srnk.us/go/4945861",
      "created_at": "2023-12-19T15:06:26Z",
      "user": {
        "id": 967528,
        "username": "tickeron",
        "name": "Tickeron",
        "avatar_url": "https://avatars.stocktwits.com/production/967528/thumb-1492026736.png",
        "avatar_url_ssl": "https://avatars.stocktwits.com/production/967528/thumb-1492026736.png",
        "join_date": "2017-02-23",
        "official": true,
        "identity": "Official",
        "classification": [
          "official"
        ],
        "home_country": "US",
        "search_regions": [],
        "followers": 14080,
        "following": 108,
        "ideas": 1410616,
        "watchlist_stocks_count": 0,
        "like_count": 0,
        "plus_tier": "",
        "premium_room": "",
        "trade_app": false,
        "trade_status": "PENDING_MFA"
      },
      "source": {
        "id": 5810,
        "title": "Tickeron",
        "url": "https://tickeron.com"
      },
      "symbols": [
        {
          "id": 12110,
          "symbol": "CYBR",
          "symbol_mic": "CYBR.XNAS",
          "title": "CyberArk Software Ltd",
          "aliases": [],
          "is_following": false,
          "watchlist_count": 9373,
          "has_pricing": true
        }
      ],
      "links": [
        {
          "title": "CYBRCyberArk Software (CYBR, $210.18) RSI Indicator left the overbought zone on December 18, 2023",
          "url": "https://srnk.us/go/4945861",
          "shortened_url": "https://stkt.co/c5wELvP_",
          "shortened_expanded_url": "tickeron.com/news/CYBR-RSI-...",
          "description": "This is a signal that CYBR's price could be shifting from an uptrend to a downtrend. Traders may consider selling the stock or exploring put options. A.I.dvisor looked back and found 36 similar cases where CYBR's RSI Indicator left the overbought zone, and in [[lock_reg:27]] of them led to a successful outcome.",
          "image": null,
          "created_at": "2023-12-19T15:06:28Z",
          "video_url": null,
          "source": {
            "name": "Tickeron",
            "website": "https://tickeron.com"
          }
        }
      ],
      "mentioned_users": [],
      "entities": {
        "chart": {
          "thumb": "https://charts.stocktwits-cdn.com/cdn-cgi/image/fit=contain,width=175,height=98/production/original_555050565.",
          "large": "https://charts.stocktwits-cdn.com/cdn-cgi/image/fit=scale-down,width=575/production/original_555050565.",
          "original": "https://charts.stocktwits-cdn.com/production/original_555050565.",
          "url": "https://charts.stocktwits-cdn.com/production/original_555050565.",
          "height": 486,
          "width": 875,
          "ratio": 0.55542857
        },
        "sentiment": {
          "basic": "Bearish"
        }
      }
    },
    {
      "id": 554996940,
      "body": "$SPZI \nGetting in deeper here in the morning. Got news coming, reverse merger with deep pockets coming in. No further dilution. Canceling shares!\nWin Win\n\n$CYBR \nGetting in tomorrow, sorry guys meant to get in at 004 and she got away from me. Plenty more upside it appears!",
      "created_at": "2023-12-19T00:37:47Z",
      "user": {
        "id": 2174692,
        "username": "EMU24",
        "name": "Brad Waymon",
        "avatar_url": "https://avatars.stocktwits.com/production/2174692/thumb-1663693722.png",
        "avatar_url_ssl": "https://avatars.stocktwits.com/production/2174692/thumb-1663693722.png",
        "join_date": "2019-07-02",
        "official": false,
        "identity": "User",
        "classification": [],
        "search_regions": [],
        "followers": 166,
        "following": 110,
        "ideas": 9988,
        "watchlist_stocks_count": 26,
        "like_count": 36763,
        "plus_tier": "",
        "premium_room": "",
        "trade_app": false,
        "trade_status": "PENDING_MFA"
      },
      "source": {
        "id": 1149,
        "title": "StockTwits for iOS",
        "url": "http://www.stocktwits.com/mobile"
      },
      "symbols": [
        {
          "id": 12110,
          "symbol": "CYBR",
          "symbol_mic": "CYBR.XNAS",
          "title": "CyberArk Software Ltd",
          "aliases": [],
          "is_following": false,
          "watchlist_count": 9375,
          "has_pricing": true
        },
        {
          "id": 18565,
          "symbol": "SPZI",
          "symbol_mic": "SPZI.OOTC",
          "title": "Spooz",
          "aliases": [],
          "is_following": false,
          "watchlist_count": 2027,
          "has_pricing": true
        }
      ],
      "likes": {
        "total": 4,
        "user_ids": [
          2174692,
          7044540,
          6743256,
          4628294
        ]
      },
      "mentioned_users": [],
      "entities": {
        "sentiment": {
          "basic": "Bullish"
        }
      }
    }
  ],
  "response": {
    "status": 200
  }
}
